Source/rtl/transcript
# //  Questa Sim-64
# //  Version 2021.2_1 linux_x86_64 May 15 2021
# //
# //  Copyright 1991-2021 Mentor Graphics Corporation
# //  All Rights Reserved.
# //
# //  QuestaSim and its associated documentation contain trade
# //  secrets and commercial or financial information that are the property of
# //  Mentor Graphics Corporation and are privileged, confidential,
# //  and exempt from disclosure under the Freedom of Information Act,
# //  5 U.S.C. Section 552. Furthermore, this information
# //  is prohibited from disclosure under the Trade Secrets Act,
# //  18 U.S.C. Section 1905.
# //
# vsim -voptargs="+acc" tb_deskew 
# Start time: 12:11:36 on Mar 11,2026
# ** Note: (vsim-3813) Design is being optimized due to module recompilation...
# ** Note: (vopt-143) Recognized 1 FSM in module "deskew(fast)".
# Loading sv_std.std
# Loading work.deskew_inf(fast)
# Loading work.sv_test(fast)
# Loading work.tb_deskew_sv_unit(fast)
# Loading work.tb_deskew(fast)
# Loading work.deskew_inf(fast__2)
# Loading work.deskew(fast)
do run_cov.tcl
# QuestaSim-64 vlog 2021.2_1 Compiler 2021.05 May 15 2021
# Start time: 12:11:51 on Mar 11,2026
# vlog -reportprogress 300 -sv "+cover=bcestf" deskew.sv tb_deskew.sv 
# -- Compiling module deskew
# -- Compiling module deskew
# ** Warning: ** while parsing file included at tb_deskew.sv(15)
# ** at deskew.sv(15): (vlog-2275) Existing module 'deskew' at line 15 will be overwritten.
# -- Compiling interface deskew_inf
# -- Compiling package tb_deskew_sv_unit
# -- Importing package sv_test
# -- Compiling module tb_deskew
# 
# Top level modules:
# 	tb_deskew
# End time: 12:11:51 on Mar 11,2026, Elapsed time: 0:00:00
# Errors: 0, Warnings: 1
# End time: 12:11:51 on Mar 11,2026, Elapsed time: 0:00:15
# Errors: 0, Warnings: 0
# vsim -gui -coverage -assertdebug -voptargs="+acc" -onfinish stop work.tb_deskew 
# Start time: 12:11:51 on Mar 11,2026
# ** Note: (vsim-3813) Design is being optimized due to module recompilation...
# ** Note: (vopt-143) Recognized 1 FSM in module "deskew(fast)".
# Loading sv_std.std
# Loading work.deskew_inf(fast)
# Loading work.sv_test(fast)
# Loading work.tb_deskew_sv_unit(fast)
# Loading work.tb_deskew(fast)
# Loading work.deskew_inf(fast__2)
# Loading work.deskew(fast)
# [TEST] De-skew Test Bench with Directed and Randomized tests
# [GEN] : S1 : IDLE -> BOTH skew = 0
# [GEN] : S2 : IDLE -> AFIRST skew = 1
# [GEN] : S3 : IDLE -> AFIRST skew = 1
# [GEN] : S4 : IDLE -> BFIRST skew = 1
# [GEN] : S5 : IDLE -> AFIRST skew = 1
# [GEN] : S6 : s1 arrives but s2 never
# [GEN] : S7 : s2 arrives but s1 never
# [GEN] : S8 : Reset mid operation
# [GEN] : S9 : flag[0] coverage randomization
# [GEN] : S10 : flag[1] coverage randomization
# [GEN] : S11 : Fully random burst
# [GEN] : Done Total Sent = 2480
# [MON] : s1 = x | s2 = x || o_stream = x | o_aligned = x
# [MON] : s1 = 0 | s2 = 0 || o_stream = 0 | o_aligned = 0
# [SCB] PASS | s1 = 0 | s2 = 0 | o_stream = 00 (exp:00) | o_aligned 0 (exp:0)
# [DRV] The interface is reseted done.
# [MON] : s1 = 0 | s2 = 0 || o_stream = 0 | o_aligned = 0
# [SCB] PASS | s1 = 0 | s2 = 0 | o_stream = 00 (exp:00) | o_aligned 0 (exp:0)
# [DRV] : s1 = 0 | s2 = 0 || o_stream = x | o_aligned = x
# [MON] : s1 = 0 | s2 = 0 || o_stream = 0 | o_aligned = 0
# [SCB] PASS | s1 = 0 | s2 = 0 | o_stream = 00 (exp:00) | o_aligned 0 (exp:0)
# [DRV] : s1 = 15 | s2 = 1 || o_stream = x | o_aligned = x
# [MON] : s1 = 15 | s2 = 1 || o_stream = 0 | o_aligned = 0
# [SCB] PASS | s1 = f | s2 = 1 | o_stream = 00 (exp:00) | o_aligned 0 (exp:0)
# [DRV] : s1 = 13 | s2 = 3 || o_stream = x | o_aligned = x
# [MON] : s1 = 13 | s2 = 3 || o_stream = 0 | o_aligned = 0
# [SCB] PASS | s1 = d | s2 = 3 | o_stream = 00 (exp:00) | o_aligned 0 (exp:0)
# [DRV] : s1 = 0 | s2 = 0 || o_stream = x | o_aligned = x
# [MON] : s1 = 0 | s2 = 0 || o_stream = 0 | o_aligned = 0
# [SCB] PASS | s1 = 0 | s2 = 0 | o_stream = 00 (exp:00) | o_aligned 0 (exp:0)
# [DRV] : s1 = 10 | s2 = 10 || o_stream = x | o_aligned = x
# [MON] : s1 = 10 | s2 = 10 || o_stream = 0 | o_aligned = 0
# [SCB] PASS | s1 = a | s2 = a | o_stream = 00 (exp:00) | o_aligned 0 (exp:0)
# [DRV] : s1 = 5 | s2 = 15 || o_stream = x | o_aligned = x
# [MON] : s1 = 5 | s2 = 15 || o_stream = 170 | o_aligned = 1
# [SCB] PASS | s1 = 5 | s2 = f | o_stream = aa (exp:aa) | o_aligned 1 (exp:1)
# [DRV] : s1 = 2 | s2 = 1 || o_stream = x | o_aligned = x
# [MON] : s1 = 2 | s2 = 1 || o_stream = 245 | o_aligned = 1
# [SCB] FAIL | s1 = 2 | s2 = 1 | o_stream = f5 (exp:5f) | o_aligned 1 (exp:1)
# [DRV] : s1 = 6 | s2 = 2 || o_stream = x | o_aligned = x
# [MON] : s1 = 6 | s2 = 2 || o_stream = 18 | o_aligned = 1
# [SCB] FAIL | s1 = 6 | s2 = 2 | o_stream = 12 (exp:21) | o_aligned 1 (exp:1)
# [DRV] : s1 = 0 | s2 = 8 || o_stream = x | o_aligned = x
# [MON] : s1 = 0 | s2 = 8 || o_stream = 38 | o_aligned = 1
# [SCB] FAIL | s1 = 0 | s2 = 8 | o_stream = 26 (exp:62) | o_aligned 1 (exp:1)
# [DRV] : s1 = 7 | s2 = 5 || o_stream = x | o_aligned = x
# [MON] : s1 = 7 | s2 = 5 || o_stream = 128 | o_aligned = 1
# [SCB] FAIL | s1 = 7 | s2 = 5 | o_stream = 80 (exp:08) | o_aligned 1 (exp:1)
# [DRV] : s1 = 0 | s2 = 0 || o_stream = x | o_aligned = x
# [MON] : s1 = 0 | s2 = 0 || o_stream = 87 | o_aligned = 1
# [SCB] FAIL | s1 = 0 | s2 = 0 | o_stream = 57 (exp:75) | o_aligned 1 (exp:1)
# [DRV] : s1 = 4 | s2 = 6 || o_stream = x | o_aligned = x
# [MON] : s1 = 4 | s2 = 6 || o_stream = 0 | o_aligned = 1
# [SCB] FAIL | s1 = 4 | s2 = 6 | o_stream = 00 (exp:00) | o_aligned 1 (exp:0)
# [DRV] : s1 = 2 | s2 = 12 || o_stream = x | o_aligned = x
# [MON] : s1 = 2 | s2 = 12 || o_stream = 0 | o_aligned = 0
# [SCB] PASS | s1 = 2 | s2 = c | o_stream = 00 (exp:00) | o_aligned 0 (exp:0)
# [DRV] : s1 = 4 | s2 = 15 || o_stream = x | o_aligned = x
# [MON] : s1 = 4 | s2 = 15 || o_stream = 0 | o_aligned = 0
# [SCB] PASS | s1 = 4 | s2 = f | o_stream = 00 (exp:00) | o_aligned 0 (exp:0)
# [DRV] : s1 = 10 | s2 = 10 || o_stream = x | o_aligned = x
# [MON] : s1 = 10 | s2 = 10 || o_stream = 0 | o_aligned = 0
# [SCB] PASS | s1 = a | s2 = a | o_stream = 00 (exp:00) | o_aligned 0 (exp:0)
# [DRV] : s1 = 5 | s2 = 5 || o_stream = x | o_aligned = x
# [MON] : s1 = 5 | s2 = 5 || o_stream = 170 | o_aligned = 1
# [SCB] PASS | s1 = 5 | s2 = 5 | o_stream = aa (exp:aa) | o_aligned 1 (exp:1)
# [DRV] : s1 = 4 | s2 = 4 || o_stream = x | o_aligned = x
# [MON] : s1 = 4 | s2 = 4 || o_stream = 85 | o_aligned = 1
# [SCB] PASS | s1 = 4 | s2 = 4 | o_stream = 55 (exp:55) | o_aligned 1 (exp:1)
# [DRV] : s1 = 5 | s2 = 11 || o_stream = x | o_aligned = x
# [MON] : s1 = 5 | s2 = 11 || o_stream = 68 | o_aligned = 1
# [SCB] PASS | s1 = 5 | s2 = b | o_stream = 44 (exp:44) | o_aligned 1 (exp:1)
# [DRV] : s1 = 6 | s2 = 6 || o_stream = x | o_aligned = x
# [MON] : s1 = 6 | s2 = 6 || o_stream = 181 | o_aligned = 1
# [SCB] FAIL | s1 = 6 | s2 = 6 | o_stream = b5 (exp:5b) | o_aligned 1 (exp:1)
# [DRV] : s1 = 4 | s2 = 8 || o_stream = x | o_aligned = x
# [MON] : s1 = 4 | s2 = 8 || o_stream = 102 | o_aligned = 1
# [SCB] PASS | s1 = 4 | s2 = 8 | o_stream = 66 (exp:66) | o_aligned 1 (exp:1)
# [DRV] : s1 = 0 | s2 = 0 || o_stream = x | o_aligned = x
# [MON] : s1 = 0 | s2 = 0 || o_stream = 132 | o_aligned = 1
# [SCB] FAIL | s1 = 0 | s2 = 0 | o_stream = 84 (exp:48) | o_aligned 1 (exp:1)
# [DRV] : s1 = 1 | s2 = 9 || o_stream = x | o_aligned = x
# [MON] : s1 = 1 | s2 = 9 || o_stream = 0 | o_aligned = 1
# [SCB] FAIL | s1 = 1 | s2 = 9 | o_stream = 00 (exp:00) | o_aligned 1 (exp:0)
# [DRV] : s1 = 14 | s2 = 2 || o_stream = x | o_aligned = x
# [MON] : s1 = 14 | s2 = 2 || o_stream = 0 | o_aligned = 0
# [SCB] PASS | s1 = e | s2 = 2 | o_stream = 00 (exp:00) | o_aligned 0 (exp:0)
# [DRV] : s1 = 11 | s2 = 2 || o_stream = x | o_aligned = x
# [MON] : s1 = 11 | s2 = 2 || o_stream = 0 | o_aligned = 0
# [SCB] PASS | s1 = b | s2 = 2 | o_stream = 00 (exp:00) | o_aligned 0 (exp:0)
# [DRV] : s1 = 10 | s2 = 10 || o_stream = x | o_aligned = x
# [MON] : s1 = 10 | s2 = 10 || o_stream = 0 | o_aligned = 0
# [SCB] PASS | s1 = a | s2 = a | o_stream = 00 (exp:00) | o_aligned 0 (exp:0)
# [DRV] : s1 = 15 | s2 = 4 || o_stream = x | o_aligned = x
# [MON] : s1 = 15 | s2 = 4 || o_stream = 170 | o_aligned = 1
# [SCB] PASS | s1 = f | s2 = 4 | o_stream = aa (exp:aa) | o_aligned 1 (exp:1)
# [DRV] : s1 = 9 | s2 = 6 || o_stream = x | o_aligned = x
# [MON] : s1 = 9 | s2 = 6 || o_stream = 79 | o_aligned = 1
# [SCB] FAIL | s1 = 9 | s2 = 6 | o_stream = 4f (exp:f4) | o_aligned 1 (exp:1)
# [DRV] : s1 = 6 | s2 = 14 || o_stream = x | o_aligned = x
# [MON] : s1 = 6 | s2 = 14 || o_stream = 105 | o_aligned = 1
# [SCB] FAIL | s1 = 6 | s2 = e | o_stream = 69 (exp:96) | o_aligned 1 (exp:1)
# [DRV] : s1 = 5 | s2 = 9 || o_stream = x | o_aligned = x
# [MON] : s1 = 5 | s2 = 9 || o_stream = 230 | o_aligned = 1
# [SCB] FAIL | s1 = 5 | s2 = 9 | o_stream = e6 (exp:6e) | o_aligned 1 (exp:1)
# [DRV] : s1 = 2 | s2 = 8 || o_stream = x | o_aligned = x
# [MON] : s1 = 2 | s2 = 8 || o_stream = 149 | o_aligned = 1
# [SCB] FAIL | s1 = 2 | s2 = 8 | o_stream = 95 (exp:59) | o_aligned 1 (exp:1)
# [DRV] : s1 = 0 | s2 = 0 || o_stream = x | o_aligned = x
# [MON] : s1 = 0 | s2 = 0 || o_stream = 130 | o_aligned = 1
# [SCB] FAIL | s1 = 0 | s2 = 0 | o_stream = 82 (exp:28) | o_aligned 1 (exp:1)
# [DRV] : s1 = 2 | s2 = 14 || o_stream = x | o_aligned = x
# [MON] : s1 = 2 | s2 = 14 || o_stream = 0 | o_aligned = 1
# [SCB] FAIL | s1 = 2 | s2 = e | o_stream = 00 (exp:00) | o_aligned 1 (exp:0)
# [DRV] : s1 = 4 | s2 = 4 || o_stream = x | o_aligned = x
# [MON] : s1 = 4 | s2 = 4 || o_stream = 0 | o_aligned = 0
# [SCB] PASS | s1 = 4 | s2 = 4 | o_stream = 00 (exp:00) | o_aligned 0 (exp:0)
# [DRV] : s1 = 2 | s2 = 8 || o_stream = x | o_aligned = x
# [MON] : s1 = 2 | s2 = 8 || o_stream = 0 | o_aligned = 0
# [SCB] PASS | s1 = 2 | s2 = 8 | o_stream = 00 (exp:00) | o_aligned 0 (exp:0)
# [DRV] : s1 = 10 | s2 = 6 || o_stream = x | o_aligned = x
# [MON] : s1 = 10 | s2 = 6 || o_stream = 0 | o_aligned = 0
# [SCB] PASS | s1 = a | s2 = 6 | o_stream = 00 (exp:00) | o_aligned 0 (exp:0)
# [DRV] : s1 = 1 | s2 = 10 || o_stream = x | o_aligned = x
# [MON] : s1 = 1 | s2 = 10 || o_stream = 0 | o_aligned = 0
# [SCB] PASS | s1 = 1 | s2 = a | o_stream = 00 (exp:00) | o_aligned 0 (exp:0)
# [DRV] : s1 = 8 | s2 = 13 || o_stream = x | o_aligned = x
# [MON] : s1 = 8 | s2 = 13 || o_stream = 170 | o_aligned = 1
# [SCB] PASS | s1 = 8 | s2 = d | o_stream = aa (exp:aa) | o_aligned 1 (exp:1)
# [DRV] : s1 = 8 | s2 = 9 || o_stream = x | o_aligned = x
# [MON] : s1 = 8 | s2 = 9 || o_stream = 209 | o_aligned = 1
# [SCB] FAIL | s1 = 8 | s2 = 9 | o_stream = d1 (exp:00) | o_aligned 1 (exp:0)
# [DRV] : s1 = 10 | s2 = 13 || o_stream = x | o_aligned = x
# [MON] : s1 = 10 | s2 = 13 || o_stream = 152 | o_aligned = 1
# [SCB] FAIL | s1 = a | s2 = d | o_stream = 98 (exp:00) | o_aligned 1 (exp:0)
# [DRV] : s1 = 10 | s2 = 4 || o_stream = x | o_aligned = x
# [MON] : s1 = 10 | s2 = 4 || o_stream = 216 | o_aligned = 1
# [SCB] FAIL | s1 = a | s2 = 4 | o_stream = d8 (exp:00) | o_aligned 1 (exp:0)
# [DRV] : s1 = 4 | s2 = 10 || o_stream = x | o_aligned = x
# [MON] : s1 = 4 | s2 = 10 || o_stream = 74 | o_aligned = 1
# [SCB] FAIL | s1 = 4 | s2 = a | o_stream = 4a (exp:00) | o_aligned 1 (exp:0)
# [DRV] : s1 = 0 | s2 = 0 || o_stream = x | o_aligned = x
# [MON] : s1 = 0 | s2 = 0 || o_stream = 170 | o_aligned = 1
# [SCB] PASS | s1 = 0 | s2 = 0 | o_stream = aa (exp:aa) | o_aligned 1 (exp:1)
# [DRV] : s1 = 3 | s2 = 6 || o_stream = x | o_aligned = x
# [MON] : s1 = 3 | s2 = 6 || o_stream = 4 | o_aligned = 1
# [SCB] FAIL | s1 = 3 | s2 = 6 | o_stream = 04 (exp:00) | o_aligned 1 (exp:0)
# [DRV] : s1 = 3 | s2 = 6 || o_stream = x | o_aligned = x
# [MON] : s1 = 3 | s2 = 6 || o_stream = 0 | o_aligned = 0
# [SCB] PASS | s1 = 3 | s2 = 6 | o_stream = 00 (exp:00) | o_aligned 0 (exp:0)
# [DRV] : s1 = 7 | s2 = 15 || o_stream = x | o_aligned = x
# [MON] : s1 = 7 | s2 = 15 || o_stream = 0 | o_aligned = 0
# [SCB] PASS | s1 = 7 | s2 = f | o_stream = 00 (exp:00) | o_aligned 0 (exp:0)
# [DRV] : s1 = 10 | s2 = 8 || o_stream = x | o_aligned = x
# [MON] : s1 = 10 | s2 = 8 || o_stream = 0 | o_aligned = 0
# [SCB] PASS | s1 = a | s2 = 8 | o_stream = 00 (exp:00) | o_aligned 0 (exp:0)
# [DRV] : s1 = 8 | s2 = 10 || o_stream = x | o_aligned = x
# [MON] : s1 = 8 | s2 = 10 || o_stream = 0 | o_aligned = 0
# [SCB] PASS | s1 = 8 | s2 = a | o_stream = 00 (exp:00) | o_aligned 0 (exp:0)
# [DRV] : s1 = 15 | s2 = 10 || o_stream = x | o_aligned = x
# [MON] : s1 = 15 | s2 = 10 || o_stream = 170 | o_aligned = 1
# [SCB] PASS | s1 = f | s2 = a | o_stream = aa (exp:aa) | o_aligned 1 (exp:1)
# [DRV] : s1 = 10 | s2 = 6 || o_stream = x | o_aligned = x
# [MON] : s1 = 10 | s2 = 6 || o_stream = 168 | o_aligned = 1
# [SCB] FAIL | s1 = a | s2 = 6 | o_stream = a8 (exp:aa) | o_aligned 1 (exp:1)
# [DRV] : s1 = 3 | s2 = 7 || o_stream = x | o_aligned = x
# [MON] : s1 = 3 | s2 = 7 || o_stream = 111 | o_aligned = 1
# [SCB] FAIL | s1 = 3 | s2 = 7 | o_stream = 6f (exp:00) | o_aligned 1 (exp:0)
# [DRV] : s1 = 1 | s2 = 10 || o_stream = x | o_aligned = x
# [MON] : s1 = 1 | s2 = 10 || o_stream = 122 | o_aligned = 1
# [SCB] FAIL | s1 = 1 | s2 = a | o_stream = 7a (exp:00) | o_aligned 1 (exp:0)
# [DRV] : s1 = 6 | s2 = 14 || o_stream = x | o_aligned = x
# [MON] : s1 = 6 | s2 = 14 || o_stream = 163 | o_aligned = 1
# [SCB] FAIL | s1 = 6 | s2 = e | o_stream = a3 (exp:00) | o_aligned 1 (exp:0)
# [DRV] : s1 = 0 | s2 = 0 || o_stream = x | o_aligned = x
# [MON] : s1 = 0 | s2 = 0 || o_stream = 225 | o_aligned = 1
# [SCB] FAIL | s1 = 0 | s2 = 0 | o_stream = e1 (exp:00) | o_aligned 1 (exp:0)
# [DRV] : s1 = 13 | s2 = 5 || o_stream = x | o_aligned = x
# [MON] : s1 = 13 | s2 = 5 || o_stream = 6 | o_aligned = 1
# [SCB] FAIL | s1 = d | s2 = 5 | o_stream = 06 (exp:00) | o_aligned 1 (exp:0)
# [DRV] : s1 = 6 | s2 = 15 || o_stream = x | o_aligned = x
# [MON] : s1 = 6 | s2 = 15 || o_stream = 0 | o_aligned = 0
# [SCB] PASS | s1 = 6 | s2 = f | o_stream = 00 (exp:00) | o_aligned 0 (exp:0)
# [DRV] : s1 = 8 | s2 = 3 || o_stream = x | o_aligned = x
# [MON] : s1 = 8 | s2 = 3 || o_stream = 0 | o_aligned = 0
# [SCB] PASS | s1 = 8 | s2 = 3 | o_stream = 00 (exp:00) | o_aligned 0 (exp:0)
# [DRV] : s1 = 10 | s2 = 7 || o_stream = x | o_aligned = x
# [MON] : s1 = 10 | s2 = 7 || o_stream = 0 | o_aligned = 0
# [SCB] PASS | s1 = a | s2 = 7 | o_stream = 00 (exp:00) | o_aligned 0 (exp:0)
# [DRV] : s1 = 14 | s2 = 10 || o_stream = x | o_aligned = x
# [MON] : s1 = 14 | s2 = 10 || o_stream = 0 | o_aligned = 0
# [SCB] PASS | s1 = e | s2 = a | o_stream = 00 (exp:00) | o_aligned 0 (exp:0)
# [DRV] : s1 = 5 | s2 = 3 || o_stream = x | o_aligned = x
# [MON] : s1 = 5 | s2 = 3 || o_stream = 170 | o_aligned = 1
# [SCB] PASS | s1 = 5 | s2 = 3 | o_stream = aa (exp:aa) | o_aligned 1 (exp:1)
# [DRV] : s1 = 11 | s2 = 10 || o_stream = x | o_aligned = x
# [MON] : s1 = 11 | s2 = 10 || o_stream = 62 | o_aligned = 1
# [SCB] FAIL | s1 = b | s2 = a | o_stream = 3e (exp:00) | o_aligned 1 (exp:0)
# [DRV] : s1 = 7 | s2 = 6 || o_stream = x | o_aligned = x
# [MON] : s1 = 7 | s2 = 6 || o_stream = 165 | o_aligned = 1
# [SCB] FAIL | s1 = 7 | s2 = 6 | o_stream = a5 (exp:aa) | o_aligned 1 (exp:1)
# [DRV] : s1 = 12 | s2 = 6 || o_stream = x | o_aligned = x
# [MON] : s1 = 12 | s2 = 6 || o_stream = 107 | o_aligned = 1
# [SCB] FAIL | s1 = c | s2 = 6 | o_stream = 6b (exp:00) | o_aligned 1 (exp:0)
# [DRV] : s1 = 0 | s2 = 13 || o_stream = x | o_aligned = x
# [MON] : s1 = 0 | s2 = 13 || o_stream = 103 | o_aligned = 1
# [SCB] FAIL | s1 = 0 | s2 = d | o_stream = 67 (exp:00) | o_aligned 1 (exp:0)
# [DRV] : s1 = 0 | s2 = 0 || o_stream = x | o_aligned = x
# [MON] : s1 = 0 | s2 = 0 || o_stream = 220 | o_aligned = 1
# [SCB] FAIL | s1 = 0 | s2 = 0 | o_stream = dc (exp:00) | o_aligned 1 (exp:0)
# [DRV] : s1 = 11 | s2 = 3 || o_stream = x | o_aligned = x
# [MON] : s1 = 11 | s2 = 3 || o_stream = 0 | o_aligned = 1
# [SCB] FAIL | s1 = b | s2 = 3 | o_stream = 00 (exp:00) | o_aligned 1 (exp:0)
# [DRV] : s1 = 15 | s2 = 13 || o_stream = x | o_aligned = x
# [MON] : s1 = 15 | s2 = 13 || o_stream = 0 | o_aligned = 0
# [SCB] PASS | s1 = f | s2 = d | o_stream = 00 (exp:00) | o_aligned 0 (exp:0)
# [DRV] : s1 = 0 | s2 = 2 || o_stream = x | o_aligned = x
# [MON] : s1 = 0 | s2 = 2 || o_stream = 0 | o_aligned = 0
# [SCB] PASS | s1 = 0 | s2 = 2 | o_stream = 00 (exp:00) | o_aligned 0 (exp:0)
# [DRV] : s1 = 10 | s2 = 14 || o_stream = x | o_aligned = x
# [MON] : s1 = 10 | s2 = 14 || o_stream = 0 | o_aligned = 0
# [SCB] PASS | s1 = a | s2 = e | o_stream = 00 (exp:00) | o_aligned 0 (exp:0)
# [DRV] : s1 = 8 | s2 = 8 || o_stream = x | o_aligned = x
# [MON] : s1 = 8 | s2 = 8 || o_stream = 0 | o_aligned = 0
# [SCB] PASS | s1 = 8 | s2 = 8 | o_stream = 00 (exp:00) | o_aligned 0 (exp:0)
# [DRV] : s1 = 8 | s2 = 10 || o_stream = x | o_aligned = x
# [MON] : s1 = 8 | s2 = 10 || o_stream = 0 | o_aligned = 0
# [SCB] PASS | s1 = 8 | s2 = a | o_stream = 00 (exp:00) | o_aligned 0 (exp:0)
# [DRV] : s1 = 9 | s2 = 8 || o_stream = x | o_aligned = x
# [MON] : s1 = 9 | s2 = 8 || o_stream = 170 | o_aligned = 1
# [SCB] PASS | s1 = 9 | s2 = 8 | o_stream = aa (exp:aa) | o_aligned 1 (exp:1)
# [DRV] : s1 = 13 | s2 = 4 || o_stream = x | o_aligned = x
# [MON] : s1 = 13 | s2 = 4 || o_stream = 136 | o_aligned = 1
# [SCB] FAIL | s1 = d | s2 = 4 | o_stream = 88 (exp:00) | o_aligned 1 (exp:0)
# [DRV] : s1 = 3 | s2 = 0 || o_stream = x | o_aligned = x
# [MON] : s1 = 3 | s2 = 0 || o_stream = 72 | o_aligned = 1
# [SCB] FAIL | s1 = 3 | s2 = 0 | o_stream = 48 (exp:00) | o_aligned 1 (exp:0)
# [DRV] : s1 = 9 | s2 = 10 || o_stream = x | o_aligned = x
# [MON] : s1 = 9 | s2 = 10 || o_stream = 9 | o_aligned = 1
# [SCB] FAIL | s1 = 9 | s2 = a | o_stream = 09 (exp:00) | o_aligned 1 (exp:0)
# [DRV] : s1 = 10 | s2 = 10 || o_stream = x | o_aligned = x
# [MON] : s1 = 10 | s2 = 10 || o_stream = 173 | o_aligned = 1
# [SCB] FAIL | s1 = a | s2 = a | o_stream = ad (exp:00) | o_aligned 1 (exp:0)
# [DRV] : s1 = 0 | s2 = 0 || o_stream = x | o_aligned = x
# [MON] : s1 = 0 | s2 = 0 || o_stream = 163 | o_aligned = 1
# [SCB] FAIL | s1 = 0 | s2 = 0 | o_stream = a3 (exp:aa) | o_aligned 1 (exp:1)
# [DRV] : s1 = 7 | s2 = 4 || o_stream = x | o_aligned = x
# [MON] : s1 = 7 | s2 = 4 || o_stream = 9 | o_aligned = 1
# [SCB] FAIL | s1 = 7 | s2 = 4 | o_stream = 09 (exp:00) | o_aligned 1 (exp:0)
# [DRV] : s1 = 5 | s2 = 8 || o_stream = x | o_aligned = x
# [MON] : s1 = 5 | s2 = 8 || o_stream = 0 | o_aligned = 0
# [SCB] PASS | s1 = 5 | s2 = 8 | o_stream = 00 (exp:00) | o_aligned 0 (exp:0)
# [DRV] : s1 = 4 | s2 = 9 || o_stream = x | o_aligned = x
# [MON] : s1 = 4 | s2 = 9 || o_stream = 0 | o_aligned = 0
# [SCB] PASS | s1 = 4 | s2 = 9 | o_stream = 00 (exp:00) | o_aligned 0 (exp:0)
# [DRV] : s1 = 10 | s2 = 4 || o_stream = x | o_aligned = x
# [MON] : s1 = 10 | s2 = 4 || o_stream = 0 | o_aligned = 0
# [SCB] PASS | s1 = a | s2 = 4 | o_stream = 00 (exp:00) | o_aligned 0 (exp:0)
# [DRV] : s1 = 11 | s2 = 7 || o_stream = x | o_aligned = x
# [MON] : s1 = 11 | s2 = 7 || o_stream = 0 | o_aligned = 0
# [SCB] PASS | s1 = b | s2 = 7 | o_stream = 00 (exp:00) | o_aligned 0 (exp:0)
# [DRV] : s1 = 5 | s2 = 10 || o_stream = x | o_aligned = x
# [MON] : s1 = 5 | s2 = 10 || o_stream = 0 | o_aligned = 0
# [SCB] PASS | s1 = 5 | s2 = a | o_stream = 00 (exp:00) | o_aligned 0 (exp:0)
# [DRV] : s1 = 10 | s2 = 7 || o_stream = x | o_aligned = x
# [MON] : s1 = 10 | s2 = 7 || o_stream = 170 | o_aligned = 1
# [SCB] PASS | s1 = a | s2 = 7 | o_stream = aa (exp:aa) | o_aligned 1 (exp:1)
# [DRV] : s1 = 10 | s2 = 14 || o_stream = x | o_aligned = x
# [MON] : s1 = 10 | s2 = 14 || o_stream = 123 | o_aligned = 1
# [SCB] FAIL | s1 = a | s2 = e | o_stream = 7b (exp:00) | o_aligned 1 (exp:0)
# [DRV] : s1 = 10 | s2 = 3 || o_stream = x | o_aligned = x
# [MON] : s1 = 10 | s2 = 3 || o_stream = 229 | o_aligned = 1
# [SCB] FAIL | s1 = a | s2 = 3 | o_stream = e5 (exp:00) | o_aligned 1 (exp:0)
# [DRV] : s1 = 10 | s2 = 14 || o_stream = x | o_aligned = x
# [MON] : s1 = 10 | s2 = 14 || o_stream = 58 | o_aligned = 1
# [SCB] FAIL | s1 = a | s2 = e | o_stream = 3a (exp:00) | o_aligned 1 (exp:0)
# [DRV] : s1 = 13 | s2 = 1 || o_stream = x | o_aligned = x
# [MON] : s1 = 13 | s2 = 1 || o_stream = 234 | o_aligned = 1
# [SCB] FAIL | s1 = d | s2 = 1 | o_stream = ea (exp:00) | o_aligned 1 (exp:0)
# [DRV] : s1 = 0 | s2 = 0 || o_stream = x | o_aligned = x
# [MON] : s1 = 0 | s2 = 0 || o_stream = 26 | o_aligned = 1
# [SCB] FAIL | s1 = 0 | s2 = 0 | o_stream = 1a (exp:00) | o_aligned 1 (exp:0)
# [DRV] : s1 = 11 | s2 = 0 || o_stream = x | o_aligned = x
# [MON] : s1 = 11 | s2 = 0 || o_stream = 10 | o_aligned = 1
# [SCB] FAIL | s1 = b | s2 = 0 | o_stream = 0a (exp:00) | o_aligned 1 (exp:0)
# [DRV] : s1 = 8 | s2 = 9 || o_stream = x | o_aligned = x
# [MON] : s1 = 8 | s2 = 9 || o_stream = 0 | o_aligned = 0
# [SCB] PASS | s1 = 8 | s2 = 9 | o_stream = 00 (exp:00) | o_aligned 0 (exp:0)
# [DRV] : s1 = 8 | s2 = 3 || o_stream = x | o_aligned = x
# [MON] : s1 = 8 | s2 = 3 || o_stream = 0 | o_aligned = 0
# [SCB] PASS | s1 = 8 | s2 = 3 | o_stream = 00 (exp:00) | o_aligned 0 (exp:0)
# [DRV] : s1 = 10 | s2 = 2 || o_stream = x | o_aligned = x
# [MON] : s1 = 10 | s2 = 2 || o_stream = 0 | o_aligned = 0
# [SCB] PASS | s1 = a | s2 = 2 | o_stream = 00 (exp:00) | o_aligned 0 (exp:0)
# [DRV] : s1 = 1 | s2 = 9 || o_stream = x | o_aligned = x
# [MON] : s1 = 1 | s2 = 9 || o_stream = 0 | o_aligned = 0
# [SCB] PASS | s1 = 1 | s2 = 9 | o_stream = 00 (exp:00) | o_aligned 0 (exp:0)
# [DRV] : s1 = 7 | s2 = 10 || o_stream = x | o_aligned = x
# [MON] : s1 = 7 | s2 = 10 || o_stream = 0 | o_aligned = 0
# [SCB] PASS | s1 = 7 | s2 = a | o_stream = 00 (exp:00) | o_aligned 0 (exp:0)
# [DRV] : s1 = 11 | s2 = 0 || o_stream = x | o_aligned = x
# [MON] : s1 = 11 | s2 = 0 || o_stream = 170 | o_aligned = 1
# [SCB] PASS | s1 = b | s2 = 0 | o_stream = aa (exp:aa) | o_aligned 1 (exp:1)
# [DRV] : s1 = 7 | s2 = 7 || o_stream = x | o_aligned = x
# [MON] : s1 = 7 | s2 = 7 || o_stream = 1 | o_aligned = 1
# [SCB] FAIL | s1 = 7 | s2 = 7 | o_stream = 01 (exp:00) | o_aligned 1 (exp:0)
# [DRV] : s1 = 0 | s2 = 1 || o_stream = x | o_aligned = x
# [MON] : s1 = 0 | s2 = 1 || o_stream = 119 | o_aligned = 1
# [SCB] FAIL | s1 = 0 | s2 = 1 | o_stream = 77 (exp:00) | o_aligned 1 (exp:0)
# [DRV] : s1 = 1 | s2 = 10 || o_stream = x | o_aligned = x
# [MON] : s1 = 1 | s2 = 10 || o_stream = 27 | o_aligned = 1
# [SCB] FAIL | s1 = 1 | s2 = a | o_stream = 1b (exp:00) | o_aligned 1 (exp:0)
# [DRV] : s1 = 7 | s2 = 6 || o_stream = x | o_aligned = x
# [MON] : s1 = 7 | s2 = 6 || o_stream = 167 | o_aligned = 1
# [SCB] FAIL | s1 = 7 | s2 = 6 | o_stream = a7 (exp:00) | o_aligned 1 (exp:0)
# [DRV] : s1 = 0 | s2 = 0 || o_stream = x | o_aligned = x
# [MON] : s1 = 0 | s2 = 0 || o_stream = 96 | o_aligned = 1
