Source/rtl/transcript
# //  Questa Sim-64
# //  Version 2021.2_1 linux_x86_64 May 15 2021
# //
# //  Copyright 1991-2021 Mentor Graphics Corporation
# //  All Rights Reserved.
# //
# //  QuestaSim and its associated documentation contain trade
# //  secrets and commercial or financial information that are the property of
# //  Mentor Graphics Corporation and are privileged, confidential,
# //  and exempt from disclosure under the Freedom of Information Act,
# //  5 U.S.C. Section 552. Furthermore, this information
# //  is prohibited from disclosure under the Trade Secrets Act,
# //  18 U.S.C. Section 1905.
# //
# vsim tb_deskew 
# Start time: 13:54:35 on Mar 10,2026
# ** Note: (vsim-3813) Design is being optimized due to module recompilation...
# Loading sv_std.std
# Loading work.tb_deskew_sv_unit(fast)
# Loading work.tb_deskew(fast)
# Loading work.deskew_inf(fast)
vsim work.tb_deskew -voptargs=+acc
# End time: 13:54:57 on Mar 10,2026, Elapsed time: 0:00:22
# Errors: 0, Warnings: 0
# vsim work.tb_deskew -voptargs="+acc" 
# Start time: 13:54:57 on Mar 10,2026
# ** Note: (vsim-3813) Design is being optimized due to module recompilation...
# ** Note: (vopt-143) Recognized 1 FSM in module "deskew(fast)".
# Loading sv_std.std
# Loading work.tb_deskew_sv_unit(fast)
# Loading work.tb_deskew(fast)
# Loading work.deskew_inf(fast__2)
# Loading work.deskew(fast)
# Loading work.deskew_inf(fast)
add wave -position insertpoint  \
sim:/tb_deskew/dut/i_clk \
sim:/tb_deskew/dut/i_reset \
sim:/tb_deskew/dut/i_stream1 \
sim:/tb_deskew/dut/i_stream2 \
sim:/tb_deskew/dut/o_stream \
sim:/tb_deskew/dut/o_aligned
run -all
# [TEST] De-skew Test Bench with Directed and Randomized tests
# [GEN] --- S1: Spec Waveform (16 cycles) ---
# [GEN] --- S2: IDLE->BOTH, skew=0 ---
# [GEN] --- S3: IDLE->AFIRST, skew=1 ---
# [GEN] --- S4: IDLE->BFIRST, skew=1 ---
# [GEN] --- S5: AFIRST->A1FIRST, skew=2 ---
# [GEN] --- S6: BFIRST->B1FIRST, skew=2 ---
# [GEN] --- S7: s1 A arrived, s2 never comes ---
# [GEN] --- S8: s2 A arrived, s1 never comes ---
# [GEN] --- S9a: BFIRST, s1 arrives flag[0]=0 ---
# [GEN] --- S9b: B1FIRST, s1 arrives flag[1]=0 ---
# [GEN] --- S9: Reset mid-operation ---
# [GEN] --- Cov Fix 1: (s2==A)&&~flag[0] both sides ---
# [GEN] --- Cov Fix 2: (s1==A)&&~flag[0] both sides ---
# [GEN] --- Cov Fix 3: (s1==A)&&~flag[1] both sides ---
# [GEN] --- S10: Random (240 cycles) ---
# [GEN] : Done Total Sent = 377
# [MON] : s1 = x | s2 = x || o_stream = x | o_aligned = x
# [MON] : s1 = 0 | s2 = 0 || o_stream = 0 | o_aligned = 0
# [SCB] PASS | s1 = 0 | s2 = 0 | o_stream = 00 (exp:00) | o_aligned 0 (exp:0)
# [DRV] The interface is reseted done.
# [MON] : s1 = 0 | s2 = 0 || o_stream = 0 | o_aligned = 0
# [SCB] PASS | s1 = 0 | s2 = 0 | o_stream = 00 (exp:00) | o_aligned 0 (exp:0)
# [DRV] : s1 = 13 | s2 = 13 || o_stream = x | o_aligned = x
# [MON] : s1 = 13 | s2 = 13 || o_stream = 0 | o_aligned = 0
# [SCB] PASS | s1 = d | s2 = d | o_stream = 00 (exp:00) | o_aligned 0 (exp:0)
# [DRV] : s1 = 10 | s2 = 0 || o_stream = x | o_aligned = x
# [MON] : s1 = 10 | s2 = 0 || o_stream = 0 | o_aligned = 0
# [SCB] PASS | s1 = a | s2 = 0 | o_stream = 00 (exp:00) | o_aligned 0 (exp:0)
# [DRV] : s1 = 0 | s2 = 6 || o_stream = x | o_aligned = x
# [MON] : s1 = 0 | s2 = 6 || o_stream = 0 | o_aligned = 0
# [SCB] PASS | s1 = 0 | s2 = 6 | o_stream = 00 (exp:00) | o_aligned 0 (exp:0)
# [DRV] : s1 = 11 | s2 = 10 || o_stream = x | o_aligned = x
# [MON] : s1 = 11 | s2 = 10 || o_stream = 0 | o_aligned = 0
# [SCB] PASS | s1 = b | s2 = a | o_stream = 00 (exp:00) | o_aligned 0 (exp:0)
# [DRV] : s1 = 13 | s2 = 12 || o_stream = x | o_aligned = x
# [MON] : s1 = 13 | s2 = 12 || o_stream = 170 | o_aligned = 1
# [SCB] PASS | s1 = d | s2 = c | o_stream = aa (exp:aa) | o_aligned 1 (exp:1)
# [DRV] : s1 = 15 | s2 = 9 || o_stream = x | o_aligned = x
# [MON] : s1 = 15 | s2 = 9 || o_stream = 192 | o_aligned = 1
# [SCB] FAIL | s1 = f | s2 = 9 | o_stream = c0 (exp:00) | o_aligned 1 (exp:0)
# [DRV] : s1 = 6 | s2 = 13 || o_stream = x | o_aligned = x
# [MON] : s1 = 6 | s2 = 13 || o_stream = 155 | o_aligned = 1
# [SCB] FAIL | s1 = 6 | s2 = d | o_stream = 9b (exp:00) | o_aligned 1 (exp:0)
# [DRV] : s1 = 9 | s2 = 15 || o_stream = x | o_aligned = x
# [MON] : s1 = 9 | s2 = 15 || o_stream = 221 | o_aligned = 1
# [SCB] FAIL | s1 = 9 | s2 = f | o_stream = dd (exp:00) | o_aligned 1 (exp:0)
# [DRV] : s1 = 12 | s2 = 3 || o_stream = x | o_aligned = x
# [MON] : s1 = 12 | s2 = 3 || o_stream = 255 | o_aligned = 1
# [SCB] FAIL | s1 = c | s2 = 3 | o_stream = ff (exp:00) | o_aligned 1 (exp:0)
# [DRV] : s1 = 7 | s2 = 6 || o_stream = x | o_aligned = x
# [MON] : s1 = 7 | s2 = 6 || o_stream = 54 | o_aligned = 1
# [SCB] FAIL | s1 = 7 | s2 = 6 | o_stream = 36 (exp:00) | o_aligned 1 (exp:0)
# [DRV] : s1 = 6 | s2 = 11 || o_stream = x | o_aligned = x
# [MON] : s1 = 6 | s2 = 11 || o_stream = 105 | o_aligned = 1
# [SCB] FAIL | s1 = 6 | s2 = b | o_stream = 69 (exp:00) | o_aligned 1 (exp:0)
# [DRV] : s1 = 14 | s2 = 8 || o_stream = x | o_aligned = x
# [MON] : s1 = 14 | s2 = 8 || o_stream = 188 | o_aligned = 1
# [SCB] FAIL | s1 = e | s2 = 8 | o_stream = bc (exp:00) | o_aligned 1 (exp:0)
# [DRV] : s1 = 15 | s2 = 10 || o_stream = x | o_aligned = x
# [MON] : s1 = 15 | s2 = 10 || o_stream = 135 | o_aligned = 1
# [SCB] FAIL | s1 = f | s2 = a | o_stream = 87 (exp:00) | o_aligned 1 (exp:0)
# [DRV] : s1 = 1 | s2 = 5 || o_stream = x | o_aligned = x
# [MON] : s1 = 1 | s2 = 5 || o_stream = 166 | o_aligned = 1
# [SCB] FAIL | s1 = 1 | s2 = 5 | o_stream = a6 (exp:00) | o_aligned 1 (exp:0)
# [DRV] : s1 = 4 | s2 = 3 || o_stream = x | o_aligned = x
# [MON] : s1 = 4 | s2 = 3 || o_stream = 94 | o_aligned = 1
# [SCB] FAIL | s1 = 4 | s2 = 3 | o_stream = 5e (exp:00) | o_aligned 1 (exp:0)
# [DRV] : s1 = 2 | s2 = 7 || o_stream = x | o_aligned = x
# [MON] : s1 = 2 | s2 = 7 || o_stream = 63 | o_aligned = 1
# [SCB] FAIL | s1 = 2 | s2 = 7 | o_stream = 3f (exp:00) | o_aligned 1 (exp:0)
# [DRV] : s1 = 0 | s2 = 0 || o_stream = x | o_aligned = x
# [MON] : s1 = 0 | s2 = 0 || o_stream = 113 | o_aligned = 1
# [SCB] FAIL | s1 = 0 | s2 = 0 | o_stream = 71 (exp:00) | o_aligned 1 (exp:0)
# [DRV] : s1 = 1 | s2 = 1 || o_stream = x | o_aligned = x
# [MON] : s1 = 1 | s2 = 1 || o_stream = 4 | o_aligned = 1
# [SCB] FAIL | s1 = 1 | s2 = 1 | o_stream = 04 (exp:00) | o_aligned 1 (exp:0)
# [DRV] : s1 = 1 | s2 = 1 || o_stream = x | o_aligned = x
# [MON] : s1 = 1 | s2 = 1 || o_stream = 0 | o_aligned = 0
# [SCB] PASS | s1 = 1 | s2 = 1 | o_stream = 00 (exp:00) | o_aligned 0 (exp:0)
# [DRV] : s1 = 10 | s2 = 10 || o_stream = x | o_aligned = x
# [MON] : s1 = 10 | s2 = 10 || o_stream = 0 | o_aligned = 0
# [SCB] PASS | s1 = a | s2 = a | o_stream = 00 (exp:00) | o_aligned 0 (exp:0)
# [DRV] : s1 = 3 | s2 = 5 || o_stream = x | o_aligned = x
# [MON] : s1 = 3 | s2 = 5 || o_stream = 170 | o_aligned = 1
# [SCB] PASS | s1 = 3 | s2 = 5 | o_stream = aa (exp:aa) | o_aligned 1 (exp:1)
# [DRV] : s1 = 7 | s2 = 9 || o_stream = x | o_aligned = x
# [MON] : s1 = 7 | s2 = 9 || o_stream = 83 | o_aligned = 1
# [SCB] FAIL | s1 = 7 | s2 = 9 | o_stream = 53 (exp:35) | o_aligned 1 (exp:1)
# [DRV] : s1 = 15 | s2 = 12 || o_stream = x | o_aligned = x
# [MON] : s1 = 15 | s2 = 12 || o_stream = 151 | o_aligned = 1
# [SCB] FAIL | s1 = f | s2 = c | o_stream = 97 (exp:79) | o_aligned 1 (exp:1)
# [DRV] : s1 = 0 | s2 = 0 || o_stream = x | o_aligned = x
# [MON] : s1 = 0 | s2 = 0 || o_stream = 207 | o_aligned = 1
# [SCB] FAIL | s1 = 0 | s2 = 0 | o_stream = cf (exp:fc) | o_aligned 1 (exp:1)
# [DRV] : s1 = 1 | s2 = 1 || o_stream = x | o_aligned = x
# [MON] : s1 = 1 | s2 = 1 || o_stream = 0 | o_aligned = 1
# [SCB] FAIL | s1 = 1 | s2 = 1 | o_stream = 00 (exp:00) | o_aligned 1 (exp:0)
# [DRV] : s1 = 1 | s2 = 1 || o_stream = x | o_aligned = x
# [MON] : s1 = 1 | s2 = 1 || o_stream = 0 | o_aligned = 0
# [SCB] PASS | s1 = 1 | s2 = 1 | o_stream = 00 (exp:00) | o_aligned 0 (exp:0)
# [DRV] : s1 = 10 | s2 = 5 || o_stream = x | o_aligned = x
# [MON] : s1 = 10 | s2 = 5 || o_stream = 0 | o_aligned = 0
# [SCB] PASS | s1 = a | s2 = 5 | o_stream = 00 (exp:00) | o_aligned 0 (exp:0)
# [DRV] : s1 = 3 | s2 = 10 || o_stream = x | o_aligned = x
# [MON] : s1 = 3 | s2 = 10 || o_stream = 0 | o_aligned = 0
# [SCB] PASS | s1 = 3 | s2 = a | o_stream = 00 (exp:00) | o_aligned 0 (exp:0)
# [DRV] : s1 = 6 | s2 = 11 || o_stream = x | o_aligned = x
# [MON] : s1 = 6 | s2 = 11 || o_stream = 170 | o_aligned = 1
# [SCB] PASS | s1 = 6 | s2 = b | o_stream = aa (exp:aa) | o_aligned 1 (exp:1)
# [DRV] : s1 = 9 | s2 = 12 || o_stream = x | o_aligned = x
# [MON] : s1 = 9 | s2 = 12 || o_stream = 179 | o_aligned = 1
# [SCB] FAIL | s1 = 9 | s2 = c | o_stream = b3 (exp:00) | o_aligned 1 (exp:0)
# [DRV] : s1 = 0 | s2 = 0 || o_stream = x | o_aligned = x
# [MON] : s1 = 0 | s2 = 0 || o_stream = 198 | o_aligned = 1
# [SCB] FAIL | s1 = 0 | s2 = 0 | o_stream = c6 (exp:00) | o_aligned 1 (exp:0)
# [DRV] : s1 = 1 | s2 = 1 || o_stream = x | o_aligned = x
# [MON] : s1 = 1 | s2 = 1 || o_stream = 9 | o_aligned = 1
# [SCB] FAIL | s1 = 1 | s2 = 1 | o_stream = 09 (exp:00) | o_aligned 1 (exp:0)
# [DRV] : s1 = 1 | s2 = 1 || o_stream = x | o_aligned = x
# [MON] : s1 = 1 | s2 = 1 || o_stream = 0 | o_aligned = 0
# [SCB] PASS | s1 = 1 | s2 = 1 | o_stream = 00 (exp:00) | o_aligned 0 (exp:0)
# [DRV] : s1 = 5 | s2 = 10 || o_stream = x | o_aligned = x
# [MON] : s1 = 5 | s2 = 10 || o_stream = 0 | o_aligned = 0
# [SCB] PASS | s1 = 5 | s2 = a | o_stream = 00 (exp:00) | o_aligned 0 (exp:0)
# [DRV] : s1 = 10 | s2 = 3 || o_stream = x | o_aligned = x
# [MON] : s1 = 10 | s2 = 3 || o_stream = 0 | o_aligned = 0
# [SCB] PASS | s1 = a | s2 = 3 | o_stream = 00 (exp:00) | o_aligned 0 (exp:0)
# [DRV] : s1 = 11 | s2 = 7 || o_stream = x | o_aligned = x
# [MON] : s1 = 11 | s2 = 7 || o_stream = 170 | o_aligned = 1
# [SCB] PASS | s1 = b | s2 = 7 | o_stream = aa (exp:aa) | o_aligned 1 (exp:1)
# [DRV] : s1 = 12 | s2 = 2 || o_stream = x | o_aligned = x
# [MON] : s1 = 12 | s2 = 2 || o_stream = 179 | o_aligned = 1
# [SCB] FAIL | s1 = c | s2 = 2 | o_stream = b3 (exp:00) | o_aligned 1 (exp:0)
# [DRV] : s1 = 0 | s2 = 0 || o_stream = x | o_aligned = x
# [MON] : s1 = 0 | s2 = 0 || o_stream = 199 | o_aligned = 1
# [SCB] FAIL | s1 = 0 | s2 = 0 | o_stream = c7 (exp:00) | o_aligned 1 (exp:0)
# [DRV] : s1 = 1 | s2 = 1 || o_stream = x | o_aligned = x
# [MON] : s1 = 1 | s2 = 1 || o_stream = 2 | o_aligned = 1
# [SCB] FAIL | s1 = 1 | s2 = 1 | o_stream = 02 (exp:00) | o_aligned 1 (exp:0)
# [DRV] : s1 = 1 | s2 = 1 || o_stream = x | o_aligned = x
# [MON] : s1 = 1 | s2 = 1 || o_stream = 0 | o_aligned = 0
# [SCB] PASS | s1 = 1 | s2 = 1 | o_stream = 00 (exp:00) | o_aligned 0 (exp:0)
# [DRV] : s1 = 10 | s2 = 2 || o_stream = x | o_aligned = x
# [MON] : s1 = 10 | s2 = 2 || o_stream = 0 | o_aligned = 0
# [SCB] PASS | s1 = a | s2 = 2 | o_stream = 00 (exp:00) | o_aligned 0 (exp:0)
# [DRV] : s1 = 3 | s2 = 4 || o_stream = x | o_aligned = x
# [MON] : s1 = 3 | s2 = 4 || o_stream = 0 | o_aligned = 0
# [SCB] PASS | s1 = 3 | s2 = 4 | o_stream = 00 (exp:00) | o_aligned 0 (exp:0)
# [DRV] : s1 = 5 | s2 = 10 || o_stream = x | o_aligned = x
# [MON] : s1 = 5 | s2 = 10 || o_stream = 0 | o_aligned = 0
# [SCB] PASS | s1 = 5 | s2 = a | o_stream = 00 (exp:00) | o_aligned 0 (exp:0)
# [DRV] : s1 = 6 | s2 = 7 || o_stream = x | o_aligned = x
# [MON] : s1 = 6 | s2 = 7 || o_stream = 170 | o_aligned = 1
# [SCB] PASS | s1 = 6 | s2 = 7 | o_stream = aa (exp:aa) | o_aligned 1 (exp:1)
# [DRV] : s1 = 8 | s2 = 9 || o_stream = x | o_aligned = x
# [MON] : s1 = 8 | s2 = 9 || o_stream = 115 | o_aligned = 1
# [SCB] FAIL | s1 = 8 | s2 = 9 | o_stream = 73 (exp:00) | o_aligned 1 (exp:0)
# [DRV] : s1 = 0 | s2 = 0 || o_stream = x | o_aligned = x
# [MON] : s1 = 0 | s2 = 0 || o_stream = 149 | o_aligned = 1
# [SCB] FAIL | s1 = 0 | s2 = 0 | o_stream = 95 (exp:00) | o_aligned 1 (exp:0)
# [DRV] : s1 = 1 | s2 = 1 || o_stream = x | o_aligned = x
# [MON] : s1 = 1 | s2 = 1 || o_stream = 6 | o_aligned = 1
# [SCB] FAIL | s1 = 1 | s2 = 1 | o_stream = 06 (exp:00) | o_aligned 1 (exp:0)
# [DRV] : s1 = 1 | s2 = 1 || o_stream = x | o_aligned = x
# [MON] : s1 = 1 | s2 = 1 || o_stream = 0 | o_aligned = 0
# [SCB] PASS | s1 = 1 | s2 = 1 | o_stream = 00 (exp:00) | o_aligned 0 (exp:0)
# [DRV] : s1 = 2 | s2 = 10 || o_stream = x | o_aligned = x
# [MON] : s1 = 2 | s2 = 10 || o_stream = 0 | o_aligned = 0
# [SCB] PASS | s1 = 2 | s2 = a | o_stream = 00 (exp:00) | o_aligned 0 (exp:0)
# [DRV] : s1 = 4 | s2 = 3 || o_stream = x | o_aligned = x
# [MON] : s1 = 4 | s2 = 3 || o_stream = 0 | o_aligned = 0
# [SCB] PASS | s1 = 4 | s2 = 3 | o_stream = 00 (exp:00) | o_aligned 0 (exp:0)
# [DRV] : s1 = 10 | s2 = 5 || o_stream = x | o_aligned = x
# [MON] : s1 = 10 | s2 = 5 || o_stream = 0 | o_aligned = 0
# [SCB] PASS | s1 = a | s2 = 5 | o_stream = 00 (exp:00) | o_aligned 0 (exp:0)
# [DRV] : s1 = 7 | s2 = 6 || o_stream = x | o_aligned = x
# [MON] : s1 = 7 | s2 = 6 || o_stream = 170 | o_aligned = 1
# [SCB] PASS | s1 = 7 | s2 = 6 | o_stream = aa (exp:aa) | o_aligned 1 (exp:1)
# [DRV] : s1 = 9 | s2 = 8 || o_stream = x | o_aligned = x
# [MON] : s1 = 9 | s2 = 8 || o_stream = 115 | o_aligned = 1
# [SCB] FAIL | s1 = 9 | s2 = 8 | o_stream = 73 (exp:00) | o_aligned 1 (exp:0)
# [DRV] : s1 = 0 | s2 = 0 || o_stream = x | o_aligned = x
# [MON] : s1 = 0 | s2 = 0 || o_stream = 149 | o_aligned = 1
# [SCB] FAIL | s1 = 0 | s2 = 0 | o_stream = 95 (exp:00) | o_aligned 1 (exp:0)
# [DRV] : s1 = 1 | s2 = 1 || o_stream = x | o_aligned = x
# [MON] : s1 = 1 | s2 = 1 || o_stream = 6 | o_aligned = 1
# [SCB] FAIL | s1 = 1 | s2 = 1 | o_stream = 06 (exp:00) | o_aligned 1 (exp:0)
# [DRV] : s1 = 1 | s2 = 1 || o_stream = x | o_aligned = x
# [MON] : s1 = 1 | s2 = 1 || o_stream = 0 | o_aligned = 0
# [SCB] PASS | s1 = 1 | s2 = 1 | o_stream = 00 (exp:00) | o_aligned 0 (exp:0)
# [DRV] : s1 = 10 | s2 = 1 || o_stream = x | o_aligned = x
# [MON] : s1 = 10 | s2 = 1 || o_stream = 0 | o_aligned = 0
# [SCB] PASS | s1 = a | s2 = 1 | o_stream = 00 (exp:00) | o_aligned 0 (exp:0)
# [DRV] : s1 = 2 | s2 = 3 || o_stream = x | o_aligned = x
# [MON] : s1 = 2 | s2 = 3 || o_stream = 0 | o_aligned = 0
# [SCB] PASS | s1 = 2 | s2 = 3 | o_stream = 00 (exp:00) | o_aligned 0 (exp:0)
# [DRV] : s1 = 4 | s2 = 5 || o_stream = x | o_aligned = x
# [MON] : s1 = 4 | s2 = 5 || o_stream = 0 | o_aligned = 0
# [SCB] PASS | s1 = 4 | s2 = 5 | o_stream = 00 (exp:00) | o_aligned 0 (exp:0)
# [DRV] : s1 = 1 | s2 = 1 || o_stream = x | o_aligned = x
# [MON] : s1 = 1 | s2 = 1 || o_stream = 0 | o_aligned = 0
# [SCB] PASS | s1 = 1 | s2 = 1 | o_stream = 00 (exp:00) | o_aligned 0 (exp:0)
# [DRV] : s1 = 1 | s2 = 1 || o_stream = x | o_aligned = x
# [MON] : s1 = 1 | s2 = 1 || o_stream = 0 | o_aligned = 0
# [SCB] PASS | s1 = 1 | s2 = 1 | o_stream = 00 (exp:00) | o_aligned 0 (exp:0)
# [DRV] : s1 = 1 | s2 = 1 || o_stream = x | o_aligned = x
# [MON] : s1 = 1 | s2 = 1 || o_stream = 0 | o_aligned = 0
# [SCB] PASS | s1 = 1 | s2 = 1 | o_stream = 00 (exp:00) | o_aligned 0 (exp:0)
# [DRV] : s1 = 0 | s2 = 0 || o_stream = x | o_aligned = x
# [MON] : s1 = 0 | s2 = 0 || o_stream = 0 | o_aligned = 0
# [SCB] PASS | s1 = 0 | s2 = 0 | o_stream = 00 (exp:00) | o_aligned 0 (exp:0)
# [DRV] : s1 = 1 | s2 = 1 || o_stream = x | o_aligned = x
# [MON] : s1 = 1 | s2 = 1 || o_stream = 0 | o_aligned = 0
# [SCB] PASS | s1 = 1 | s2 = 1 | o_stream = 00 (exp:00) | o_aligned 0 (exp:0)
# [DRV] : s1 = 1 | s2 = 1 || o_stream = x | o_aligned = x
# [MON] : s1 = 1 | s2 = 1 || o_stream = 0 | o_aligned = 0
# [SCB] PASS | s1 = 1 | s2 = 1 | o_stream = 00 (exp:00) | o_aligned 0 (exp:0)
# [DRV] : s1 = 1 | s2 = 10 || o_stream = x | o_aligned = x
# [MON] : s1 = 1 | s2 = 10 || o_stream = 0 | o_aligned = 0
# [SCB] PASS | s1 = 1 | s2 = a | o_stream = 00 (exp:00) | o_aligned 0 (exp:0)
# [DRV] : s1 = 3 | s2 = 2 || o_stream = x | o_aligned = x
# [MON] : s1 = 3 | s2 = 2 || o_stream = 0 | o_aligned = 0
# [SCB] PASS | s1 = 3 | s2 = 2 | o_stream = 00 (exp:00) | o_aligned 0 (exp:0)
# [DRV] : s1 = 5 | s2 = 4 || o_stream = x | o_aligned = x
# [MON] : s1 = 5 | s2 = 4 || o_stream = 0 | o_aligned = 0
# [SCB] PASS | s1 = 5 | s2 = 4 | o_stream = 00 (exp:00) | o_aligned 0 (exp:0)
# [DRV] : s1 = 1 | s2 = 1 || o_stream = x | o_aligned = x
# [MON] : s1 = 1 | s2 = 1 || o_stream = 0 | o_aligned = 0
# [SCB] PASS | s1 = 1 | s2 = 1 | o_stream = 00 (exp:00) | o_aligned 0 (exp:0)
# [DRV] : s1 = 1 | s2 = 1 || o_stream = x | o_aligned = x
# [MON] : s1 = 1 | s2 = 1 || o_stream = 0 | o_aligned = 0
# [SCB] PASS | s1 = 1 | s2 = 1 | o_stream = 00 (exp:00) | o_aligned 0 (exp:0)
# [DRV] : s1 = 1 | s2 = 1 || o_stream = x | o_aligned = x
# [MON] : s1 = 1 | s2 = 1 || o_stream = 0 | o_aligned = 0
# [SCB] PASS | s1 = 1 | s2 = 1 | o_stream = 00 (exp:00) | o_aligned 0 (exp:0)
# [DRV] : s1 = 0 | s2 = 0 || o_stream = x | o_aligned = x
# [MON] : s1 = 0 | s2 = 0 || o_stream = 0 | o_aligned = 0
# [SCB] PASS | s1 = 0 | s2 = 0 | o_stream = 00 (exp:00) | o_aligned 0 (exp:0)
# [DRV] : s1 = 1 | s2 = 1 || o_stream = x | o_aligned = x
# [MON] : s1 = 1 | s2 = 1 || o_stream = 0 | o_aligned = 0
# [SCB] PASS | s1 = 1 | s2 = 1 | o_stream = 00 (exp:00) | o_aligned 0 (exp:0)
# [DRV] : s1 = 1 | s2 = 1 || o_stream = x | o_aligned = x
# [MON] : s1 = 1 | s2 = 1 || o_stream = 0 | o_aligned = 0
# [SCB] PASS | s1 = 1 | s2 = 1 | o_stream = 00 (exp:00) | o_aligned 0 (exp:0)
# [DRV] : s1 = 3 | s2 = 10 || o_stream = x | o_aligned = x
# [MON] : s1 = 3 | s2 = 10 || o_stream = 0 | o_aligned = 0
# [SCB] PASS | s1 = 3 | s2 = a | o_stream = 00 (exp:00) | o_aligned 0 (exp:0)
# [DRV] : s1 = 10 | s2 = 5 || o_stream = x | o_aligned = x
# [MON] : s1 = 10 | s2 = 5 || o_stream = 0 | o_aligned = 0
# [SCB] PASS | s1 = a | s2 = 5 | o_stream = 00 (exp:00) | o_aligned 0 (exp:0)
# [DRV] : s1 = 6 | s2 = 7 || o_stream = x | o_aligned = x
# [MON] : s1 = 6 | s2 = 7 || o_stream = 170 | o_aligned = 1
# [SCB] PASS | s1 = 6 | s2 = 7 | o_stream = aa (exp:aa) | o_aligned 1 (exp:1)
# [DRV] : s1 = 8 | s2 = 9 || o_stream = x | o_aligned = x
# [MON] : s1 = 8 | s2 = 9 || o_stream = 101 | o_aligned = 1
# [SCB] FAIL | s1 = 8 | s2 = 9 | o_stream = 65 (exp:00) | o_aligned 1 (exp:0)
# [DRV] : s1 = 0 | s2 = 0 || o_stream = x | o_aligned = x
# [MON] : s1 = 0 | s2 = 0 || o_stream = 135 | o_aligned = 1
# [SCB] FAIL | s1 = 0 | s2 = 0 | o_stream = 87 (exp:00) | o_aligned 1 (exp:0)
# [DRV] : s1 = 1 | s2 = 1 || o_stream = x | o_aligned = x
# [MON] : s1 = 1 | s2 = 1 || o_stream = 9 | o_aligned = 1
# [SCB] FAIL | s1 = 1 | s2 = 1 | o_stream = 09 (exp:00) | o_aligned 1 (exp:0)
# [DRV] : s1 = 1 | s2 = 1 || o_stream = x | o_aligned = x
# [MON] : s1 = 1 | s2 = 1 || o_stream = 0 | o_aligned = 0
# [SCB] PASS | s1 = 1 | s2 = 1 | o_stream = 00 (exp:00) | o_aligned 0 (exp:0)
# [DRV] : s1 = 1 | s2 = 10 || o_stream = x | o_aligned = x
# [MON] : s1 = 1 | s2 = 10 || o_stream = 0 | o_aligned = 0
# [SCB] PASS | s1 = 1 | s2 = a | o_stream = 00 (exp:00) | o_aligned 0 (exp:0)
# [DRV] : s1 = 10 | s2 = 2 || o_stream = x | o_aligned = x
# [MON] : s1 = 10 | s2 = 2 || o_stream = 0 | o_aligned = 0
# [SCB] PASS | s1 = a | s2 = 2 | o_stream = 00 (exp:00) | o_aligned 0 (exp:0)
# [DRV] : s1 = 3 | s2 = 4 || o_stream = x | o_aligned = x
# [MON] : s1 = 3 | s2 = 4 || o_stream = 170 | o_aligned = 1
# [SCB] PASS | s1 = 3 | s2 = 4 | o_stream = aa (exp:aa) | o_aligned 1 (exp:1)
# [DRV] : s1 = 0 | s2 = 0 || o_stream = x | o_aligned = x
# [MON] : s1 = 0 | s2 = 0 || o_stream = 50 | o_aligned = 1
# [SCB] FAIL | s1 = 0 | s2 = 0 | o_stream = 32 (exp:00) | o_aligned 1 (exp:0)
# [DRV] : s1 = 1 | s2 = 1 || o_stream = x | o_aligned = x
# [MON] : s1 = 1 | s2 = 1 || o_stream = 4 | o_aligned = 1
# [SCB] FAIL | s1 = 1 | s2 = 1 | o_stream = 04 (exp:00) | o_aligned 1 (exp:0)
# [DRV] : s1 = 1 | s2 = 1 || o_stream = x | o_aligned = x
# [MON] : s1 = 1 | s2 = 1 || o_stream = 0 | o_aligned = 0
# [SCB] PASS | s1 = 1 | s2 = 1 | o_stream = 00 (exp:00) | o_aligned 0 (exp:0)
# [DRV] : s1 = 3 | s2 = 10 || o_stream = x | o_aligned = x
# [MON] : s1 = 3 | s2 = 10 || o_stream = 0 | o_aligned = 0
# [SCB] PASS | s1 = 3 | s2 = a | o_stream = 00 (exp:00) | o_aligned 0 (exp:0)
# [DRV] : s1 = 4 | s2 = 5 || o_stream = x | o_aligned = x
# [MON] : s1 = 4 | s2 = 5 || o_stream = 0 | o_aligned = 0
# [SCB] PASS | s1 = 4 | s2 = 5 | o_stream = 00 (exp:00) | o_aligned 0 (exp:0)
# [DRV] : s1 = 10 | s2 = 6 || o_stream = x | o_aligned = x
# [MON] : s1 = 10 | s2 = 6 || o_stream = 0 | o_aligned = 0
# [SCB] PASS | s1 = a | s2 = 6 | o_stream = 00 (exp:00) | o_aligned 0 (exp:0)
# [DRV] : s1 = 7 | s2 = 8 || o_stream = x | o_aligned = x
# [MON] : s1 = 7 | s2 = 8 || o_stream = 170 | o_aligned = 1
# [SCB] PASS | s1 = 7 | s2 = 8 | o_stream = aa (exp:aa) | o_aligned 1 (exp:1)
# [DRV] : s1 = 9 | s2 = 12 || o_stream = x | o_aligned = x
# [MON] : s1 = 9 | s2 = 12 || o_stream = 117 | o_aligned = 1
# [SCB] FAIL | s1 = 9 | s2 = c | o_stream = 75 (exp:00) | o_aligned 1 (exp:0)
# [DRV] : s1 = 0 | s2 = 0 || o_stream = x | o_aligned = x
# [MON] : s1 = 0 | s2 = 0 || o_stream = 150 | o_aligned = 1
# [SCB] FAIL | s1 = 0 | s2 = 0 | o_stream = 96 (exp:00) | o_aligned 1 (exp:0)
# [DRV] : s1 = 1 | s2 = 1 || o_stream = x | o_aligned = x
# [MON] : s1 = 1 | s2 = 1 || o_stream = 8 | o_aligned = 1
# [SCB] FAIL | s1 = 1 | s2 = 1 | o_stream = 08 (exp:00) | o_aligned 1 (exp:0)
# [DRV] : s1 = 1 | s2 = 1 || o_stream = x | o_aligned = x
# [MON] : s1 = 1 | s2 = 1 || o_stream = 0 | o_aligned = 0
# [SCB] PASS | s1 = 1 | s2 = 1 | o_stream = 00 (exp:00) | o_aligned 0 (exp:0)
# [DRV] : s1 = 1 | s2 = 10 || o_stream = x | o_aligned = x
# [MON] : s1 = 1 | s2 = 10 || o_stream = 0 | o_aligned = 0
# [SCB] PASS | s1 = 1 | s2 = a | o_stream = 00 (exp:00) | o_aligned 0 (exp:0)
# [DRV] : s1 = 2 | s2 = 3 || o_stream = x | o_aligned = x
# [MON] : s1 = 2 | s2 = 3 || o_stream = 0 | o_aligned = 0
# [SCB] PASS | s1 = 2 | s2 = 3 | o_stream = 00 (exp:00) | o_aligned 0 (exp:0)
# [DRV] : s1 = 10 | s2 = 4 || o_stream = x | o_aligned = x
# [MON] : s1 = 10 | s2 = 4 || o_stream = 0 | o_aligned = 0
# [SCB] PASS | s1 = a | s2 = 4 | o_stream = 00 (exp:00) | o_aligned 0 (exp:0)
# [DRV] : s1 = 5 | s2 = 6 || o_stream = x | o_aligned = x
# [MON] : s1 = 5 | s2 = 6 || o_stream = 170 | o_aligned = 1
# [SCB] PASS | s1 = 5 | s2 = 6 | o_stream = aa (exp:aa) | o_aligned 1 (exp:1)
# [DRV] : s1 = 7 | s2 = 8 || o_stream = x | o_aligned = x
# [MON] : s1 = 7 | s2 = 8 || o_stream = 83 | o_aligned = 1
# [SCB] FAIL | s1 = 7 | s2 = 8 | o_stream = 53 (exp:00) | o_aligned 1 (exp:0)
# [DRV] : s1 = 1 | s2 = 1 || o_stream = x | o_aligned = x
# [MON] : s1 = 1 | s2 = 1 || o_stream = 116 | o_aligned = 1
